grad,"Broj prodaja"
aleksandrovac,4
aleksinac,34
alibunar,15
apatin,28
arandjelovac,62
arilje,7
bac,5
"backa palanka",44
"backa topola",29
"backi petrovac",12
"bajina basta",18
batocina,17
becej,21
"bela crkva",10
beocin,98
beograd,15687
blace,3
bogatic,13
bojnik,2
boljevac,2
bor,7
brus,1
bujanovac,6
cacak,54
cajetina,9
cicevac,6
coka,3
"crna trava",1
cuprija,128
despotovac,6
dimitrovgrad,2
djakovica,2
doljevac,7
dragas,1
"fruska gora",6
"gadzin han",3
golubac,13
"gornji milanovac",26
indjija,273
irig,91
ivanjica,4
jagodina,508
kacanik,2
kanjiza,8
kikinda,31
kladovo,1
knic,13
knjazevac,9
koceljeva,8
kopaonik,78
kosjeric,2
"kosovska mitrovica",80
kovacica,30
kovin,44
kragujevac,1841
kraljevo,175
krupanj,3
krusevac,161
kucevo,2
kula,9
kursumlija,4
lajkovac,3
lapovo,9
lebane,3
leskovac,70
ljig,9
ljubovija,2
loznica,31
lucani,5
majdanpek,7
"mali idjos",2
"mali zvornik",8
"malo crnice",1
medvedja,2
merosina,7
mionica,22
negotin,48
nis,3484
"nova crnja",8
"nova varos",14
"novi becej",11
"novi knezevac",17
"novi pazar",3
"novi sad",15504
odzaci,10
opovo,5
orahovac,3
osecina,3
pancevo,242
paracin,337
pecinci,30
"petrovac na mlavi",6
pirot,8
plandiste,6
pozarevac,26
pozega,8
priboj,3
prijepolje,61
prokuplje,14
raca,7
raska,5
razanj,1
rekovac,8
ruma,115
sabac,168
secanj,15
senta,2
sid,23
sjenica,4
smederevo,68
"smederevska palanka",57
sokobanja,39
sombor,336
srbobran,41
"sremska mitrovica",66
"sremski karlovci",67
"stara pazova",121
subotica,1226
surdulica,4
svilajnac,67
svrljig,2
tara,10
temerin,51
titel,24
topola,24
trgoviste,2
trstenik,27
tutin,26
ub,42
uzice,34
valjevo,51
varvarin,3
"velika plana",26
"veliko gradiste",20
"vladicin han",7
vladimirci,18
vlasotince,6
vranje,35
vrbas,45
"vrnjacka banja",528
vrsac,23
zabalj,30
zabari,5
zajecar,123
zitiste,15
zitoradja,2
zlatar,1
zlatibor,548
zrenjanin,916
