id,tip,tipPonude,grad,deoGrada,kvadratura,godinaIzgradnje,povrsinaZemljista,spratnost,uknjizenost,tipGrejanja,brojSoba,unutrasnjeProstorije,parking,garaza,lift,infrastruktura,cena,link
47653,0,1,beograd,"kalenic, vracar",370.00,2020,NULL,"6/6 spratova",NULL,"etazno grejanje",5.0,"kupatila (4), toalet",1,1,NULL,"bazen, terasa",7400,https://www.4zida.rs/izdavanje/stanovi/beograd/oglas/cara-nikolaja-ii/6036076938c97859b64850ce
47668,0,1,beograd,"kalenic, vracar",200.00,2020,NULL,"4/6 spratova",NULL,NULL,5.0,"kupatila (4)",1,1,NULL,"bazen, terasa",4000,https://www.4zida.rs/izdavanje/stanovi/beograd/oglas/cara-nikolaja-ii/6032137fe03d2e17c43d6c5e
47338,0,1,beograd,vracar,200.00,2020,NULL,"5/6 spratova",NULL,"podno grejanje",5.0,NULL,NULL,NULL,1,terasa,4000,https://www.4zida.rs/izdavanje/stanovi/beograd/oglas/cara-nikolaja-ii/60a93cf1cbbed03d6c519f07
47833,0,1,beograd,"dedinje, savski venac",260.00,2020,NULL,"visoko prizemlje/3 sprata",NULL,"grejanje na gas",5.0,"kupatila (2), toalet, kuhinja, ostava",1,NULL,1,terasa,3500,https://www.4zida.rs/izdavanje/stanovi/beograd/oglas/dedinje/5fb3990246fd627f7072bcd8
2055,0,1,beograd,"cubura, vracar",170.00,2020,NULL,"5/6 spratova",NULL,NULL,4.0,"kupatila (2)",1,1,NULL,terasa,3400,https://www.4zida.rs/izdavanje/stanovi/beograd/oglas/cara-nikolaja-ii/5f60e65212af4b5995729357
47669,0,1,beograd,"kalenic, vracar",170.00,2020,NULL,"4/6 spratova",NULL,"etazno grejanje",4.0,"kupatila (2)",1,1,NULL,"bazen, terasa",3400,https://www.4zida.rs/izdavanje/stanovi/beograd/oglas/cara-nikolaja-ii/6032137ce03d2e17c43d6c5a
47655,0,1,beograd,"kalenic, vracar",140.00,2020,NULL,"1/6 spratova",NULL,"etazno grejanje",4.0,"kupatila (2)",1,1,NULL,"bazen, terasa",2800,https://www.4zida.rs/izdavanje/stanovi/beograd/oglas/cara-nikolaja-ii/6036076038c97859b64850c2
47339,0,1,beograd,vracar,140.00,2020,NULL,"3/6 spratova",NULL,"podno grejanje",4.0,NULL,NULL,NULL,1,terasa,2800,https://www.4zida.rs/izdavanje/stanovi/beograd/oglas/cara-nikolaja-ii/60a93cdbcbbed03d6c519ed0
47654,0,1,beograd,"kalenic, vracar",125.00,2020,NULL,"1/6 spratova",NULL,NULL,4.0,"kupatila (2)",1,1,NULL,"bazen, terasa",2500,https://www.4zida.rs/izdavanje/stanovi/beograd/oglas/cara-nikolaja-ii/6036076438c97859b64850c6
47670,0,1,beograd,"kalenic, vracar",100.00,2020,NULL,"1/6 spratova",NULL,NULL,3.0,"kupatila (2)",NULL,1,NULL,"bazen, terasa",2000,https://www.4zida.rs/izdavanje/stanovi/beograd/oglas/cara-nikolaja-ii/6032136ee03d2e17c43d6c46
6085,1,1,beograd,"veliko selo, palilula opstina",950.00,2020,10.00,NULL,NULL,NULL,12.0,"kupatila (4)",NULL,NULL,NULL,"dvoriste, terasa",2000,https://www.4zida.rs/izdavanje/kuce/beograd/oglas/veliko-selo/6036956e875d4e04881a8f83
47995,0,1,beograd,"beograd na vodi, savski venac",90.00,2020,NULL,"13/15 spratova",NULL,"centralno grejanje",3.5,NULL,NULL,1,1,terasa,1800,https://www.4zida.rs/izdavanje/stanovi/beograd/oglas/bulevar-vudroa-vilsona/5e5eef58273171085839f675
47752,0,1,beograd,"beograd na vodi, savski venac",90.00,2020,NULL,"13/23 sprata",NULL,NULL,4.0,"kupatila (2)",NULL,1,NULL,NULL,1800,https://www.4zida.rs/izdavanje/stanovi/beograd/oglas/hercegovacka/5ffc23043737ef723a240640
47941,0,1,beograd,"centar, savski venac",88.00,2020,NULL,"6/8 spratova",NULL,"centralno grejanje",3.0,NULL,NULL,NULL,1,terasa,1800,https://www.4zida.rs/izdavanje/stanovi/beograd/oglas/kneza-milosa/5f15610d49b867395d17f14f
3224,0,1,beograd,"beogradjanka, savski venac",81.00,2020,NULL,"3/24 sprata",NULL,"centralno grejanje",3.0,"kupatila (2)",NULL,1,1,terasa,1700,https://www.4zida.rs/izdavanje/stanovi/beograd/oglas/kneza-milosa/6066071ea4bbaf21962a43d3
47282,0,1,beograd,"beograd na vodi, savski venac",92.00,2020,NULL,"1/5 spratova",NULL,"centralno grejanje",3.0,"kupatila (2)",NULL,1,1,terasa,1600,https://www.4zida.rs/izdavanje/stanovi/beograd/oglas/hercegovacka/60bc1097079253647c0e2bf3
47566,0,1,beograd,"mostarska petlja, savski venac",88.00,2020,NULL,"8/24 sprata",NULL,"centralno grejanje",3.0,"kupatila (2)",NULL,1,1,lodja,1550,https://www.4zida.rs/izdavanje/stanovi/beograd/oglas/kneza-milosa/605c839013b4e06258641203
47404,0,1,beograd,"mostarska petlja, savski venac",88.00,2020,NULL,"8/22 sprata",NULL,"etazno grejanje",3.0,"kupatila (2), toalet",1,1,NULL,"bazen, terasa",1550,https://www.4zida.rs/izdavanje/stanovi/beograd/oglas/mostarska-petlja/609512622376090f5a23eb44
47728,0,1,beograd,"banovo brdo, cukarica, cukarica opstina",128.00,2020,NULL,"1/3 sprata",NULL,"etazno grejanje",3.5,kupatilo,NULL,1,1,terasa,1500,https://www.4zida.rs/izdavanje/stanovi/beograd/oglas/kraljice-katarine/600b2915b670483522156c03
8502,0,1,beograd,"beograd na vodi, savski venac",83.00,2020,NULL,"23/23 sprata",NULL,"centralno grejanje",3.0,NULL,NULL,1,1,terasa,1350,https://www.4zida.rs/izdavanje/stanovi/beograd/oglas/bw-parkview/60cafa143ae825167d4296d3
47700,0,1,beograd,"blok 23, novi beograd",115.00,2020,NULL,"2. sprat",NULL,"centralno grejanje",3.5,NULL,1,1,1,terasa,1300,https://www.4zida.rs/izdavanje/stanovi/beograd/oglas/bulevar-milutina-milankovica/601d558ecee89839ce6c7153
47694,0,1,"novi sad",telep,210.00,2020,NULL,"5/5 spratova",NULL,"centralno grejanje",4.0,"kupatila (3)",NULL,NULL,1,terasa,1250,https://www.4zida.rs/izdavanje/stanovi/novi-sad/oglas/telep/60216d7d1161be16433f33b3
47735,0,1,beograd,"blok 32, novi beograd",90.00,2020,NULL,"6/7 spratova",NULL,"centralno grejanje",3.0,NULL,NULL,1,1,terasa,1200,https://www.4zida.rs/izdavanje/stanovi/beograd/oglas/bulevar-zorana-djindjica/60037b875b92a53097130a66
47568,0,1,beograd,"a blok - blok 67a, novi beograd",75.00,2020,NULL,"5/12 spratova",NULL,NULL,3.0,kupatilo,NULL,NULL,NULL,NULL,1200,https://www.4zida.rs/izdavanje/stanovi/beograd/oglas/a-blok-blok-67a/605a204e971c2671f1459fcc
46460,0,1,beograd,"juzni bulevar, vracar",78.00,2020,NULL,"2/5 spratova",NULL,NULL,3.0,"kupatila (2)",NULL,NULL,NULL,NULL,1000,https://www.4zida.rs/izdavanje/stanovi/beograd/oglas/juzni-bulevar/6079b6640da25422696f3b33
46892,0,1,beograd,"beograd na vodi, savski venac",58.00,2020,NULL,"prizemlje/5 spratova",NULL,NULL,2.0,kupatilo,NULL,1,NULL,NULL,1000,https://www.4zida.rs/izdavanje/stanovi/beograd/oglas/hercegovacka/5fd34501b608442338042233
46773,0,1,beograd,"beograd na vodi, savski venac",58.00,2020,NULL,prizemlje,NULL,NULL,2.0,kupatilo,NULL,NULL,NULL,NULL,900,https://www.4zida.rs/izdavanje/stanovi/beograd/oglas/beograd-na-vodi/601c1b7d33a6c97200461083
46764,0,1,beograd,"beograd na vodi, savski venac",60.00,2020,NULL,"1/5 spratova",NULL,"centralno grejanje",2.0,NULL,NULL,NULL,1,terasa,800,https://www.4zida.rs/izdavanje/stanovi/beograd/oglas/belgrade-waterfrontmagnolia/601d3742bbaa612ea06c779c
46944,0,1,beograd,"blok 32, novi beograd",70.00,2020,NULL,"4/8 spratova",NULL,"centralno grejanje",3.0,NULL,NULL,1,1,terasa,800,https://www.4zida.rs/izdavanje/stanovi/beograd/oglas/bulevar-zorana-djindjica/5fa98997a5e7b21718754d93
46422,0,1,beograd,"beograd na vodi, savski venac",60.00,2020,NULL,"14. sprat",NULL,NULL,2.0,kupatilo,NULL,NULL,NULL,NULL,750,https://www.4zida.rs/izdavanje/stanovi/beograd/oglas/beograd-na-vodi/60804d78927eb66bbc535c48
46622,0,1,beograd,"blok 11a, blok 11, novi beograd",60.00,2020,NULL,"5/10 spratova",NULL,NULL,2.0,kupatilo,NULL,NULL,NULL,NULL,700,https://www.4zida.rs/izdavanje/stanovi/beograd/oglas/blok-11a/605493f533648d0890010568
46136,0,1,kragujevac,centar,145.00,2020,NULL,"6/7 spratova",NULL,NULL,5.0,"kupatila (2)",1,NULL,1,terasa,700,https://www.4zida.rs/izdavanje/stanovi/kragujevac/oglas/centar/60c35bf5f21ae1431706c29c
2424,0,1,"novi sad",telep,96.00,2020,NULL,"potkrovlje/4 sprata",NULL,"centralno grejanje",4.0,"kupatila (2)",NULL,NULL,1,terasa,700,https://www.4zida.rs/izdavanje/stanovi/novi-sad/oglas/telep/5f06f8bb4f9fcf146a0671a3
8367,0,1,beograd,"kneza milosa, savski venac",39.00,2020,NULL,"4/7 spratova",NULL,"centralno grejanje",1.0,NULL,NULL,NULL,1,terasa,700,https://www.4zida.rs/izdavanje/stanovi/beograd/oglas/vojvode-milenka/60cc48fa18b6c92f65641a3f
45554,0,1,"novi sad","bulevar patrijarha pavla (somborski bulevar), telep",96.00,2020,NULL,"4. sprat",NULL,"centralno grejanje",4.0,NULL,NULL,NULL,1,NULL,600,https://www.4zida.rs/izdavanje/stanovi/novi-sad/oglas/bulevar-patrijarha-pavla-somborski-bulevar/6064922ab762ad2a98098490
45183,0,1,beograd,"dorcol, stari grad opstina",50.00,2020,NULL,"2/8 spratova",NULL,"centralno grejanje",2.0,NULL,NULL,NULL,1,NULL,500,https://www.4zida.rs/izdavanje/stanovi/beograd/oglas/zorza-klemansoa/60acc2ca2656e81a4e4553d3
46030,0,1,beograd,"dorcol, stari grad opstina",32.00,2020,NULL,"1/5 spratova",NULL,NULL,1.5,NULL,NULL,NULL,NULL,NULL,500,https://www.4zida.rs/izdavanje/stanovi/beograd/oglas/skender-begova/5ebeb0602731710c1f2eb327
44986,0,1,beograd,"plavi horizonti, zemun, zemun opstina",70.00,2020,NULL,"1/2 sprata",NULL,"etazno grejanje",2.5,"kupatilo, toalet, kuhinja, ostava",1,NULL,NULL,terasa,500,https://www.4zida.rs/izdavanje/stanovi/beograd/oglas/milke-lukic/60c34307c1ee8d4401372368
2680,0,1,kragujevac,erdoglija,69.00,2020,NULL,prizemlje,NULL,NULL,2.5,NULL,1,NULL,NULL,NULL,400,https://www.4zida.rs/izdavanje/stanovi/kragujevac/oglas/erdoglija/60d480d56293995f06486ba8
43643,0,1,"novi sad","novi sad - centar, stari grad",38.00,2020,NULL,"visoko prizemlje/2 sprata",NULL,"centralno grejanje",1.5,kupatilo,NULL,NULL,1,NULL,400,https://www.4zida.rs/izdavanje/stanovi/novi-sad/oglas/grozde-gajisin/607871ece10efd524f7e8d91
43211,0,1,"novi sad","novi sad - centar, stari grad",40.00,2020,NULL,"3/13 spratova",NULL,"centralno grejanje",1.5,kupatilo,NULL,NULL,1,terasa,400,https://www.4zida.rs/izdavanje/stanovi/novi-sad/oglas/narodnih-heroja/60c0aa8ef6f5e656a74ff6c0
42795,0,1,"novi sad","nova detelinara, detelinara",42.00,2020,NULL,"4/6 spratova",NULL,"centralno grejanje",2.0,"kupatilo, toalet",NULL,NULL,1,"dvoriste, terasa",300,https://www.4zida.rs/izdavanje/stanovi/novi-sad/oglas/kornelija-stankovica/6085374b14b7cb3d915a6313
42539,0,1,"novi sad",rotkvarija,42.00,2020,NULL,"2/5 spratova",NULL,"centralno grejanje",2.0,NULL,NULL,NULL,1,terasa,300,https://www.4zida.rs/izdavanje/stanovi/novi-sad/oglas/rotkvarija/60be0315a3b6a664432ad3e3
2418,0,1,kragujevac,centar,45.00,2020,NULL,"1/5 spratova",NULL,NULL,1.5,kupatilo,1,NULL,1,terasa,300,https://www.4zida.rs/izdavanje/stanovi/kragujevac/oglas/centar/60d5d169aaa2b035fb0b6ab3
43035,0,1,"novi sad",podbara,40.00,2020,NULL,"5. sprat",NULL,"centralno grejanje",1.5,NULL,NULL,NULL,1,terasa,300,https://www.4zida.rs/izdavanje/stanovi/novi-sad/oglas/podbara/6017c1d023958d1e7f3542f5
42873,0,1,"novi sad",telep,38.00,2020,NULL,"4/5 spratova",NULL,"grejanje na gas",1.5,kupatilo,NULL,NULL,1,terasa,300,https://www.4zida.rs/izdavanje/stanovi/novi-sad/oglas/telep/606f1a65d3ec677e0d5e7a83
41900,0,1,"novi sad","nova detelinara, detelinara",42.00,2020,NULL,"4. sprat",NULL,"etazno grejanje",2.0,NULL,1,NULL,1,terasa,270,https://www.4zida.rs/izdavanje/stanovi/novi-sad/oglas/nova-detelinara-novi-sad/60acf04df65f6309702e0f3a
42291,0,1,"novi sad",adice,24.00,2020,NULL,"1. sprat",NULL,"etazno grejanje",1.0,NULL,1,NULL,NULL,NULL,250,https://www.4zida.rs/izdavanje/stanovi/novi-sad/oglas/adice-novi-sad/60146486bf63b20d8b280e33
42227,0,1,"novi sad",petrovaradin,36.00,2020,NULL,"1/4 sprata",NULL,"grejanje na gas",1.5,kupatilo,NULL,NULL,1,terasa,250,https://www.4zida.rs/izdavanje/stanovi/novi-sad/oglas/mostarska/6040b049f3010a05545b5215
7894,0,1,nis,pantelej,65.00,2020,NULL,"1/7 spratova",NULL,NULL,2.5,"kupatila (2)",NULL,NULL,NULL,NULL,250,https://www.4zida.rs/izdavanje/stanovi/nis/oglas/pantelej/60dafeeebb783122250af4f3
2678,0,1,kragujevac,centar,47.00,2020,NULL,"2. sprat",NULL,NULL,1.5,NULL,1,NULL,1,terasa,250,https://www.4zida.rs/izdavanje/stanovi/kragujevac/oglas/centar/60d480db6293995f06486bb1
2679,0,1,kragujevac,centar,48.00,2020,NULL,"1. sprat",NULL,NULL,1.5,NULL,1,NULL,1,terasa,250,https://www.4zida.rs/izdavanje/stanovi/kragujevac/oglas/centar/60d480d76293995f06486bac
2659,0,1,"novi sad",podbara,40.00,2020,NULL,"1/3 sprata",NULL,"etazno grejanje",2.0,NULL,NULL,NULL,1,terasa,230,https://www.4zida.rs/izdavanje/stanovi/novi-sad/oglas/podbara/60d4881f05c037602939d5e6
41547,0,1,beograd,"mali mokri lug, zvezdara opstina",60.00,2020,NULL,"1/2 sprata",NULL,"etazno grejanje",2.5,kupatilo,1,NULL,NULL,terasa,200,https://www.4zida.rs/izdavanje/stanovi/beograd/oglas/mali-mokri-lug/5e52ac059a309176544ed5e6
40987,0,1,kragujevac,"bubanj, centar",64.00,2020,NULL,"4. sprat",NULL,NULL,3.0,NULL,NULL,NULL,1,"terasa, lodja",200,https://www.4zida.rs/izdavanje/stanovi/kragujevac/oglas/bubanj/60abb071639fc6717f052093
7765,0,1,kragujevac,centar,34.00,2020,NULL,"3. sprat",NULL,"centralno grejanje",1.5,kupatilo,1,NULL,1,NULL,200,https://www.4zida.rs/izdavanje/stanovi/kragujevac/oglas/centar/60db6c39dfec7c0ec73ca707
1738,0,1,"novi sad","nova detelinara, detelinara",27.00,2020,NULL,"4/5 spratova",NULL,"centralno grejanje",0.5,kupatilo,NULL,NULL,1,terasa,190,https://www.4zida.rs/izdavanje/stanovi/novi-sad/oglas/hadzi-ruvimova/601985b2228021437d479503
41430,0,1,nis,"zeleznicka stanica, palilula",38.00,2020,NULL,"suteren/2 sprata",NULL,"grejanje na struju",1.0,"kupatilo, toalet, kuhinja",1,NULL,NULL,"dvoriste, podrum, lodja",170,https://www.4zida.rs/izdavanje/stanovi/nis/oglas/zeleznicka-stanica/5fb2a6597284ff1efd2fd922
3034,0,1,zlatibor,centar,40.00,2020,NULL,NULL,NULL,NULL,1.5,"kupatilo, toalet, kuhinja",NULL,NULL,1,"dvoriste, podrum, terasa",35,https://www.4zida.rs/izdavanje/stanovi/gradske-lokacije/oglas/drinske-divizije/6006c2479a30912cf471ad76
41483,0,1,"vrnjacka banja",sneznik,28.00,2020,NULL,"1/2 sprata",NULL,"grejanje na struju",0.5,"kupatilo, toalet, kuhinja",1,NULL,NULL,"dvoriste, terasa",30,https://www.4zida.rs/izdavanje/stanovi/gradske-lokacije/oglas/sneznik/5f5b79a09a30916f330a742d
41390,0,1,"vrnjacka banja",centar,34.00,2020,NULL,"2/3 sprata",NULL,"etazno grejanje",1.0,"kupatilo, kuhinja",1,NULL,NULL,"dvoriste, terasa",30,https://www.4zida.rs/izdavanje/stanovi/gradske-lokacije/oglas/velibora-markovica/5fef6eef4fc1171a671e17d1
40858,0,1,zlatibor,centar,45.00,2020,NULL,"100/100 spratova",NULL,"etazno grejanje",2.5,"kupatilo, toalet, kuhinja",1,NULL,1,"prilaz za invalide, dvoriste, terasa",30,https://www.4zida.rs/izdavanje/stanovi/gradske-lokacije/oglas/bregovi/60b8ddd47bf85d356606d5cf
2141,0,1,sokobanja,centar,32.00,2020,NULL,"2/3 sprata",NULL,NULL,2.0,"kupatilo, toalet",NULL,NULL,NULL,"terasa, lodje (2)",25,https://www.4zida.rs/izdavanje/stanovi/gradske-lokacije/oglas/radeta-zivkovica/5ec9a9ab0c7cde164122221d
