id,tip,tipPonude,grad,deoGrada,kvadratura,godinaIzgradnje,povrsinaZemljista,spratnost,uknjizenost,tipGrejanja,brojSoba,unutrasnjeProstorije,parking,garaza,lift,infrastruktura,cena,link
51681,1,0,nis,"prva kutina, okolne lokacije",260.00,2016,700.00,NULL,NULL,NULL,56.0,"kupatila (3)",1,1,NULL,"dvoriste, terasa",73000,https://www.4zida.rs/prodaja/kuce/nis/oglas/prva-kutina/602aaa401218372836119710
55756,1,0,beograd,"zeleni venac, savski venac",500.00,1925,4.00,NULL,1,"grejanje na struju",40.0,"kupatila (5), toaleti (10)",1,1,NULL,"dvoriste, tavan, podrum, terase (4)",890000,https://www.4zida.rs/prodaja/kuce/beograd/oglas/brankova/5e453deb9a309119fa59a618
9388,1,0,kragujevac,palilule,1070.00,NULL,7.00,NULL,1,"grejanje na gas",40.0,NULL,1,1,NULL,NULL,500000,https://www.4zida.rs/prodaja/kuce/kragujevac/oglas/palilule/60ba16fcbc2e3b230d613468
48515,1,0,prijepolje,"gornje goracice, okolne lokacije",25.00,2013,NULL,NULL,1,NULL,25.0,kupatilo,NULL,NULL,NULL,NULL,15000,https://www.4zida.rs/prodaja/kuce/prijepolje/oglas/gornji-goracici/5f86c027b08a13032f66257b
54084,1,0,beograd,"borca, palilula opstina",700.00,2016,NULL,NULL,1,"grejanje na struju",20.0,NULL,1,1,NULL,"tavan, podrum, terasa",160000,https://www.4zida.rs/prodaja/kuce/beograd/oglas/popova-bara-nova-3/5ff4a6d1defedb402b5cce27
55551,1,0,zlatibor,centar,750.00,2015,10.00,NULL,0,"etazno grejanje",20.0,"kupatila (20)",1,NULL,NULL,"terase (12), lodje (8)",1000000,https://www.4zida.rs/prodaja/kuce/gradske-lokacije/oglas/centar/6095447556a5bd607d19913c
55630,1,0,beograd,vracar,900.00,1921,4.00,NULL,1,"centralno grejanje",20.0,"kupatila (4)",NULL,NULL,NULL,NULL,3500000,https://www.4zida.rs/prodaja/kuce/beograd/oglas/vracar-centar-krunski-venac/601b2b332eed79689113e67c
5303,1,0,beograd,"dedinje, savski venac",1338.00,NULL,10.00,NULL,NULL,NULL,20.0,NULL,NULL,NULL,NULL,"dvoriste, tavan, podrum",4000000,https://www.4zida.rs/prodaja/kuce/beograd/oglas/dedinje/60cdac92a05dbb373a168853
9425,1,0,nis,"durlan, pantelej",550.00,NULL,4.00,NULL,1,"grejanje na struju",19.0,"kupatila (6), toaleti (4)",1,NULL,NULL,"dvoriste, tavan, podrum, terase (5), lodje (7)",195000,https://www.4zida.rs/prodaja/kuce/nis/oglas/durlan/60b90c5ed2a8ef29412380de
6179,1,1,beograd,"dedinje, savski venac",1154.00,NULL,NULL,NULL,NULL,NULL,18.0,"kupatila (16)",NULL,1,NULL,"podrum, terasa",15000,https://www.4zida.rs/izdavanje/kuce/beograd/oglas/dedinje/5f1ec38e70c1f37e4a6c7c33
55114,1,0,beograd,"kumodraz, vozdovac opstina",600.00,2005,8.00,NULL,1,"etazno grejanje",18.0,"kupatila (5), toalet",1,NULL,NULL,"terase (2)",500000,https://www.4zida.rs/prodaja/kuce/beograd/oglas/kumodraz/603bb7be70caff5cff394fea
53844,1,0,kikinda,"gradske lokacije",510.00,NULL,NULL,NULL,1,"grejanje na gas",17.0,"kupatila (2), toaleti (5)",1,NULL,NULL,"terase (3)",185000,https://www.4zida.rs/prodaja/kuce/kikinda/oglas/kralja-petra/607453975c8f8425b22c081e
55716,1,0,beograd,"torlak, kumodraz, vozdovac opstina",635.00,NULL,NULL,NULL,1,NULL,17.0,"kupatila (8)",1,NULL,NULL,"podrum, terasa",650000,https://www.4zida.rs/prodaja/kuce/beograd/oglas/torlak/5f5f794495a306365618e373
9421,1,0,kragujevac,"denino brdo, aerodrom",360.00,NULL,NULL,NULL,NULL,NULL,16.0,NULL,NULL,NULL,NULL,NULL,97500,https://www.4zida.rs/prodaja/kuce/kragujevac/oglas/denino-brdo/60b90ecb6b67723ed77232b7
5099,1,0,temerin,"backi jarak, okolne lokacije",266.00,1990,7.00,NULL,1,"grejanje na gas",16.0,"kupatila (2)",1,1,NULL,"dvoriste, podrum",79000,https://www.4zida.rs/prodaja/kuce/temerin/oglas/marka-oreskovica/60635c0c1e22a37a9d20f527
5717,1,1,beograd,"kalvarija, zemun, zemun opstina",900.00,2015,NULL,NULL,NULL,NULL,16.0,"kupatila (6)",NULL,NULL,NULL,NULL,3000,https://www.4zida.rs/izdavanje/kuce/beograd/oglas/dr-nedeljka-ercegovca/60d20a4f8457382a652263d0
55585,1,0,nis,"centar, medijana",500.00,2021,NULL,NULL,1,NULL,16.0,"kupatila (7)",NULL,NULL,NULL,NULL,1000000,https://www.4zida.rs/prodaja/kuce/nis/oglas/centar/605c60aba96b2b233c3766b3
4046,1,0,pozarevac,"varosko brdo",465.00,NULL,3.00,NULL,NULL,"centralno grejanje",16.0,NULL,NULL,NULL,NULL,NULL,80000,https://www.4zida.rs/prodaja/kuce/gradske-lokacije/oglas/varosko-brdo/60083b9f0c7cde3a245f9e3c
55752,1,0,beograd,"filmski grad, cukarica, cukarica opstina",520.00,NULL,3.50,NULL,1,"grejanje na gas",15.0,"kupatila (6)",NULL,1,NULL,terasa,800000,https://www.4zida.rs/prodaja/kuce/beograd/oglas/veljka-petrovica/5e66a18527317130321abf1a
54165,1,0,beocin,"gradske lokacije",600.00,NULL,NULL,NULL,1,"grejanje na gas",15.0,NULL,1,NULL,NULL,"tavan, podrum, terasa",200000,https://www.4zida.rs/prodaja/kuce/beocin/oglas/cerevic-heroja-rase/5f9809907783086dd019fa65
55695,1,0,beograd,"dedinje, savski venac",510.00,NULL,5.00,NULL,1,"centralno grejanje",15.0,"kupatila (5)",NULL,1,NULL,"dvoriste, podrum, terase (2), lodje (2)",890000,https://www.4zida.rs/prodaja/kuce/beograd/oglas/neznanog-junaka/5f7f0c929a30913da837cc4c
5359,1,0,pozarevac,zabela,417.00,1975,NULL,NULL,NULL,NULL,15.0,"kupatila (3)",NULL,1,NULL,"dvoriste, podrum",85000,https://www.4zida.rs/prodaja/kuce/gradske-lokacije/oglas/vojvode-milenka/60cc7e2136b16e28036f4b03
54362,1,0,kragujevac,bresnica,350.00,NULL,4.00,NULL,1,"grejanje na gas",15.0,NULL,1,NULL,NULL,terasa,140000,https://www.4zida.rs/prodaja/kuce/kragujevac/oglas/bresnica/5f24851b6d220e4c465a7003
6015,1,1,beograd,"dedinje, savski venac",1154.00,NULL,NULL,NULL,NULL,NULL,15.0,"kupatila (8)",NULL,NULL,NULL,NULL,15000,https://www.4zida.rs/izdavanje/kuce/beograd/oglas/dedinje/6079b6680da25422696f3b38
5273,1,0,krusevac,"makresane, okolne lokacije",700.00,NULL,70.00,NULL,1,NULL,15.0,NULL,NULL,NULL,NULL,NULL,105000,https://www.4zida.rs/prodaja/kuce/krusevac/oglas/makresane/607c78b02bd3625e41753a98
5627,1,0,beograd,"dedinje, savski venac",1220.00,2021,12.00,NULL,0,NULL,15.0,NULL,NULL,1,NULL,dvoriste,1500000,https://www.4zida.rs/prodaja/kuce/beograd/oglas/dedinje/60c9b979e905a82bc93eb9db
55002,1,0,beograd,"mali mokri lug, zvezdara opstina",424.00,2016,10.00,NULL,1,"etazno grejanje",15.0,"kupatila (5)",1,1,NULL,"podrum, terasa",500000,https://www.4zida.rs/prodaja/kuce/beograd/oglas/29-novembra/606ad00d7c5f7754be18ad48
3818,1,0,"vrnjacka banja",centar,500.00,NULL,NULL,NULL,1,NULL,15.0,NULL,NULL,NULL,NULL,"terase (5)",110000,https://www.4zida.rs/prodaja/kuce/gradske-lokacije/oglas/centar/6037a43515b0a40d2023cc1d
50101,1,0,beograd,"sremcica, cukarica opstina",220.00,NULL,8.00,NULL,1,NULL,15.0,NULL,NULL,NULL,NULL,terasa,42000,https://www.4zida.rs/prodaja/kuce/beograd/oglas/jeliciceva/5b840279b70c5959df7caf02
6174,1,1,kragujevac,bresnica,350.00,NULL,4.00,NULL,NULL,"grejanje na gas",15.0,NULL,1,NULL,NULL,terasa,1000,https://www.4zida.rs/izdavanje/kuce/kragujevac/oglas/bresnica/5f24e6fad9349639f4677148
